<svg width="20" height="20" viewBox="0 0 20 20" fill="none" xmlns="http://www.w3.org/2000/svg">
<path fill-rule="evenodd" clip-rule="evenodd" d="M7.14286 0.714286C7.14286 0.319797 7.42268 0 7.76786 0H12.2321C12.5773 0 12.8571 0.319797 12.8571 0.714286V2.71777H17.1328C17.139 2.71767 17.1451 2.71767 17.1513 2.71777H19.375C19.7202 2.71777 20 3.03757 20 3.43206C20 3.82655 19.7202 4.14634 19.375 4.14634H17.6926L15.977 19.3769C15.9369 19.7332 15.6715 20 15.3571 20H4.64286C4.32941 20 4.06445 19.7347 4.02327 19.3795L2.25698 4.14634H0.625C0.279822 4.14634 0 3.82655 0 3.43206C0 3.03757 0.279822 2.71777 0.625 2.71777H7.14286V0.714286ZM8.39286 2.71777H11.6071V1.42857H8.39286V2.71777ZM3.51791 4.14634L5.1905 18.5714H14.8074L16.4322 4.14634H3.51791ZM6.84153 5.88953C7.18621 5.8684 7.48062 6.17061 7.4991 6.56453L7.94553 16.0767C7.96402 16.4706 7.69959 16.8071 7.3549 16.8282C7.01022 16.8494 6.71581 16.5472 6.69733 16.1532L6.2509 6.64104C6.23241 6.24712 6.49684 5.91066 6.84153 5.88953ZM13.1585 5.88953C13.5032 5.91066 13.7676 6.24712 13.7491 6.64104L13.3027 16.1532C13.2842 16.5472 12.9898 16.8494 12.6451 16.8282C12.3004 16.8071 12.036 16.4706 12.0545 16.0767L12.5009 6.56453C12.5194 6.17061 12.8138 5.8684 13.1585 5.88953ZM10 5.8885C10.3452 5.8885 10.625 6.2083 10.625 6.60279V16.115C10.625 16.5095 10.3452 16.8293 10 16.8293C9.65482 16.8293 9.375 16.5095 9.375 16.115V6.60279C9.375 6.2083 9.65482 5.8885 10 5.8885Z" fill="#AF7C56"/>
</svg>
